…
## Examples

``` r
# \dontrun{
# fetch data for Liechtenstein
lie_raw_data <- wdpa_fetch("Liechtenstein", wait = TRUE)

# print data
print(lie_raw_data)
#> Simple feature collection with 47 features and 33 fields
#> Geometry type: MULTIPOLYGON
#> Dimension:     XY
#> Bounding box:  xmin: 9.475186 ymin: 47.04974 xmax: 9.636976 ymax: 47.26538
#> Geodetic CRS:  WGS 84
#> # A tibble: 47 × 34
#>    SITE_ID SITE_PID SITE_TYPE NAME_ENG NAME  DESIG DESIG_ENG DESIG_TYPE IUCN_CAT
#>      <int> <chr>    <chr>     <chr>    <chr> <chr> <chr>     <chr>      <chr>   
#>  1   18107 18107    PA        Ruggell… Rugg… Natu… Nature R… National   Ia      
#>  2   18109 18109    PA        Schwabb… Schw… Natu… Nature R… National   Ia      
#>  3   30747 30747    PA        Gamprin… Gamp… Natu… Nature R… National   Ia      
#>  4   30750 30750    PA        Äulehäg  Äule… Natu… Nature R… National   Ia      
#>  5   30752 30752    PA        Triesne… Trie… Natu… Nature R… National   Ia      
#>  6   30753 30753    PA        Wisanels Wisa… Natu… Nature R… National   Ia      
#>  7   30754 30754    PA        Birka    Birka Natu… Nature R… National   Ia      
#>  8   30755 30755    PA        Schneck… Schn… Natu… Nature R… National   Ia      
#>  9   30756 30756    PA        Au       Au    Natu… Nature R… National   Ia      
#> 10   30757 30757    PA        Pflanze… Pfla… Gesc… Protecte… National   V       
#> # ℹ 37 more rows
#> # ℹ 25 more variables: INT_CRIT <chr>, REALM <chr>, REP_M_AREA <dbl>,
#> #   GIS_M_AREA <dbl>, REP_AREA <dbl>, GIS_AREA <dbl>, NO_TAKE <chr>,
#> #   NO_TK_AREA <dbl>, STATUS <chr>, STATUS_YR <int>, GOV_TYPE <chr>,
#> #   GOVSUBTYPE <chr>, OWN_TYPE <chr>, OWNSUBTYPE <chr>, MANG_AUTH <chr>,
#> #   MANG_PLAN <chr>, VERIF <chr>, METADATAID <int>, PRNT_ISO3 <chr>,
#> #   ISO3 <chr>, SUPP_INFO <chr>, CONS_OBJ <chr>, INLND_WTRS <chr>, …
…
## download data for each country
mult_data <- lapply(country_codes, wdpa_fetch, wait = TRUE)

## merge datasets together
mult_dat <- st_as_sf(as_tibble(bind_rows(mult_data)))

## print data
print(mult_dat)
#> Simple feature collection with 63 features and 33 fields
#> Geometry type: GEOMETRY
#> Dimension:     XY
#> Bounding box:  xmin: 9.475186 ymin: 5.586051 xmax: 171.9985 ymax: 47.26538
#> Geodetic CRS:  WGS 84
#> # A tibble: 63 × 34
#>    SITE_ID SITE_PID SITE_TYPE NAME_ENG NAME  DESIG DESIG_ENG DESIG_TYPE IUCN_CAT
#>      <int> <chr>    <chr>     <chr>    <chr> <chr> <chr>     <chr>      <chr>   
#>  1   18107 18107    PA        Ruggell… Rugg… Natu… Nature R… National   Ia      
#>  2   18109 18109    PA        Schwabb… Schw… Natu… Nature R… National   Ia      
#>  3   30747 30747    PA        Gamprin… Gamp… Natu… Nature R… National   Ia      
#>  4   30750 30750    PA        Äulehäg  Äule… Natu… Nature R… National   Ia      
#>  5   30752 30752    PA        Triesne… Trie… Natu… Nature R… National   Ia      
#>  6   30753 30753    PA        Wisanels Wisa… Natu… Nature R… National   Ia      
#>  7   30754 30754    PA        Birka    Birka Natu… Nature R… National   Ia      
#>  8   30755 30755    PA        Schneck… Schn… Natu… Nature R… National   Ia      
#>  9   30756 30756    PA        Au       Au    Natu… Nature R… National   Ia      
#> 10   30757 30757    PA        Pflanze… Pfla… Gesc… Protecte… National   V       
#> # ℹ 53 more rows
#> # ℹ 25 more variables: INT_CRIT <chr>, REALM <chr>, REP_M_AREA <dbl>,
#> #   GIS_M_AREA <dbl>, REP_AREA <dbl>, GIS_AREA <dbl>, NO_TAKE <chr>,
#> #   NO_TK_AREA <dbl>, STATUS <chr>, STATUS_YR <int>, GOV_TYPE <chr>,
#> #   GOVSUBTYPE <chr>, OWN_TYPE <chr>, OWNSUBTYPE <chr>, MANG_AUTH <chr>,
#> #   MANG_PLAN <chr>, VERIF <chr>, METADATAID <int>, PRNT_ISO3 <chr>,
#> #   ISO3 <chr>, SUPP_INFO <chr>, CONS_OBJ <chr>, INLND_WTRS <chr>, …
…
