Fetch data from the World Database on Protected Areas — wdpa_fetch • wdpar
…
# \dontrun{
# fetch data for Liechtenstein
lie_raw_data <- wdpa_fetch("Liechtenstein", wait = TRUE)

# fetch data for Liechtenstein using the ISO3 code
lie_raw_data <- wdpa_fetch("LIE")

# print data
print(lie_raw_data)
#> Simple feature collection with 45 features and 30 fields
#> geometry type:  MULTIPOLYGON
#> dimension:      XY
#> bbox:           xmin: 9.475186 ymin: 47.04974 xmax: 9.636976 ymax: 47.26538
#> CRS:            4326
#> # A tibble: 45 x 31
#>    WDPAID WDPA_PID PA_DEF NAME  ORIG_NAME DESIG DESIG_ENG DESIG_TYPE IUCN_CAT
#>  *  <dbl> <chr>    <chr>  <chr> <chr>     <chr> <chr>     <chr>      <chr>   
#>  1  18107 18107    1      Rugg… Ruggelle… Natu… Nature R… National   Ia      
#>  2  18109 18109    1      Schw… Schwabbr… Natu… Nature R… National   Ia      
#>  3  30747 30747    1      Gamp… Gamprine… Natu… Nature R… National   Ia      
#>  4  30750 30750    1      Äule… Äulehäg   Natu… Nature R… National   Ia      
#>  5  30752 30752    1      Trie… Triesner… Natu… Nature R… National   Ia      
#>  6  30753 30753    1      Wisa… Wisanels  Natu… Nature R… National   Ia      
#>  7  30754 30754    1      Birka Birka     Natu… Nature R… National   Ia      
#>  8  30755 30755    1      Schn… Schnecke… Natu… Nature R… National   Ia      
#>  9  30756 30756    1      Au    Au        Natu… Nature R… National   Ia      
#> 10  30757 30757    1      Pfla… Pflanzen… Gesc… Protecte… National   V       
#> # … with 35 more rows, and 22 more variables: INT_CRIT <chr>, MARINE <chr>,
#> #   REP_M_AREA <dbl>, GIS_M_AREA <dbl>, REP_AREA <dbl>, GIS_AREA <dbl>,
#> #   NO_TAKE <chr>, NO_TK_AREA <dbl>, STATUS <chr>, STATUS_YR <int>,
#> #   GOV_TYPE <chr>, OWN_TYPE <chr>, MANG_AUTH <chr>, MANG_PLAN <chr>,
#> #   VERIF <chr>, METADATAID <int>, SUB_LOC <chr>, PARENT_ISO <chr>, ISO3 <chr>,
#> #   SUPP_INFO <chr>, CONS_OBJ <chr>, geometry <MULTIPOLYGON [°]>
…
## download data for each country
mult_data <- lapply(country_codes, wdpa_fetch, wait = TRUE)
#> Warning: local data is out of date: Sep 2020

## merge datasets together
mult_dat <- st_as_sf(as_tibble(bind_rows(mult_data)))

## print data
print(mult_dat)
#> Simple feature collection with 61 features and 30 fields
#> geometry type:  GEOMETRY
#> dimension:      XY
#> bbox:           xmin: 9.475186 ymin: 5.586051 xmax: 171.9985 ymax: 47.26538
#> CRS:            4326
#> # A tibble: 61 x 31
#>    WDPAID WDPA_PID PA_DEF NAME  ORIG_NAME DESIG DESIG_ENG DESIG_TYPE IUCN_CAT
#>     <dbl> <chr>    <chr>  <chr> <chr>     <chr> <chr>     <chr>      <chr>   
#>  1  18107 18107    1      Rugg… Ruggelle… Natu… Nature R… National   Ia      
#>  2  18109 18109    1      Schw… Schwabbr… Natu… Nature R… National   Ia      
#>  3  30747 30747    1      Gamp… Gamprine… Natu… Nature R… National   Ia      
#>  4  30750 30750    1      Äule… Äulehäg   Natu… Nature R… National   Ia      
#>  5  30752 30752    1      Trie… Triesner… Natu… Nature R… National   Ia      
#>  6  30753 30753    1      Wisa… Wisanels  Natu… Nature R… National   Ia      
#>  7  30754 30754    1      Birka Birka     Natu… Nature R… National   Ia      
#>  8  30755 30755    1      Schn… Schnecke… Natu… Nature R… National   Ia      
#>  9  30756 30756    1      Au    Au        Natu… Nature R… National   Ia      
#> 10  30757 30757    1      Pfla… Pflanzen… Gesc… Protecte… National   V       
#> # … with 51 more rows, and 22 more variables: INT_CRIT <chr>, MARINE <chr>,
#> #   REP_M_AREA <dbl>, GIS_M_AREA <dbl>, REP_AREA <dbl>, GIS_AREA <dbl>,
#> #   NO_TAKE <chr>, NO_TK_AREA <dbl>, STATUS <chr>, STATUS_YR <int>,
#> #   GOV_TYPE <chr>, OWN_TYPE <chr>, MANG_AUTH <chr>, MANG_PLAN <chr>,
#> #   VERIF <chr>, METADATAID <int>, SUB_LOC <chr>, PARENT_ISO <chr>, ISO3 <chr>,
#> #   SUPP_INFO <chr>, CONS_OBJ <chr>, geometry <MULTIPOLYGON [°]>
…
